<svg width="91" height="87" viewBox="0 0 91 87" fill="none" xmlns="http://www.w3.org/2000/svg">
<circle cx="43.2071" cy="43.2071" r="43.2071" fill="#D6EDFF"/>
<circle cx="43.5" cy="5.5" r="3.1" stroke="#4A8EDD" stroke-width="0.8"/>
<circle cx="76.5" cy="79.5" r="3.1" stroke="#4A8EDD" stroke-width="0.8"/>
<circle cx="79" cy="11" r="2" fill="#3F8CE3"/>
<line x1="42.888" y1="75.3931" x2="42.888" y2="81.6131" stroke="#3782D7" stroke-width="0.8"/>
<line x1="46.2201" y1="78.2809" x2="40" y2="78.2809" stroke="#3782D7" stroke-width="0.8"/>
<line x1="85.7119" y1="19.837" x2="90.0425" y2="25.1875" stroke="#3782D7" stroke-width="0.8"/>
<line x1="90.2828" y1="19.6403" x2="85.4155" y2="24.5076" stroke="#3782D7" stroke-width="0.8"/>
</svg>
